[
  {
    "disp_name": "Accumulation Distribution Line (ADL)",
    "name": "adl",
    "params": [],
    "link" :"https://www.investopedia.com/terms/a/accumulationdistribution.asp"
  },
  {
    "disp_name": "Average Directional Index (ADX)",
    "name": "adx",
    "params": [
      {
        "disp_name": "Time Period",
        "name": "adx_time_period",
        "value": "14"
      }
    ],
    "link" :"https://www.investopedia.com/terms/a/adx.asp"
  },
  {
    "disp_name": "Average True Range (ATR)",
    "name": "atr",
    "params": [
      {
        "disp_name": "Time Period",
        "name": "atr_time_period",
        "value": "14"
      }
    ],
    "link" :"https://www.investopedia.com/terms/a/atr.asp"
  },
  {
    "disp_name": "Bollinger Bands (BB)",
    "name": "bollingerbands",
    "params": [
      {
        "disp_name": "Time Period",
        "name": "bb_time_period",
        "value": "20"
      },
      {
        "disp_name": "Std Dev",
        "name": "bb_stddev",
        "value": "2"
      }
    ],
    "link" :"https://www.investopedia.com/terms/b/bollingerbands.asp "
  },
  {
    "disp_name": "Commodity Channel Index (CCI)",
    "name": "cci",
    "params": [
      {
        "disp_name": "Time Period",
        "name": "cci_time_period",
        "value": "14"
      },
      {
        "disp_name": "Upper Limit",
        "name": "cci_upper_limit",
        "value": "100"
      },
      {
        "disp_name": "Lower Limit",
        "name": "cci_lower_limit",
        "value": "-100"
      }
    ],
    "link" :"https://www.investopedia.com/terms/c/commoditychannelindex.asp"
  },
  {
    "disp_name": "Force Index (FI)",
    "name": "forceindex",
    "params": [
      {
        "disp_name": "Time Period",
        "name": "fi_time_period",
        "value": "14"
      }
    ],
    "link" :"https://www.investopedia.com/terms/f/force-index.asp "
  },
  {
    "disp_name": "Know Sure Thing (KST)",
    "name": "kst",
    "params": [
      {
        "disp_name": "Time Period",
        "name": "kst_time_period",
        "value": "14"
      },
      {
        "disp_name": "ROCPer1",
        "name": "kst_roc1",
        "value": "10"
      },
      {
        "disp_name": "ROCPer2",
        "name": "kst_roc2",
        "value": "15"
      },
      {
        "disp_name": "ROCPer3",
        "name": "kst_roc3",
        "value": "20"
      },
      {
        "disp_name": "ROCPer4",
        "name": "kst_roc4",
        "value": "30"
      },
      {
        "disp_name": "SMROCPer1",
        "name": "kst_smroc1",
        "value": "10"
      },
      {
        "disp_name": "SMROCPer2",
        "name": "kst_smroc2",
        "value": "10"
      },
      {
        "disp_name": "SMROCPer3",
        "name": "kst_smroc3",
        "value": "10"
      },
      {
        "disp_name": "SMROCPer4",
        "name": "kst_smroc4",
        "value": "15"
      }
    ],
    "link" :"https://www.investopedia.com/terms/k/know-sure-thing-kst.asp"
  },
  {
    "disp_name": "Moving Average Convergence Divergence (MACD)",
    "name": "macd",
    "params": [
      {
        "disp_name": "Fast Period",
        "name": "macd_fast_period",
        "value": "12"
      },
      {
        "disp_name": "Slow Period",
        "name": "macd_slow_period",
        "value": "26"
      },
      {
        "disp_name": "Signal Period",
        "name": "macd_signal_period",
        "value": "9"
      }
    ],
    "link" :"https://www.investopedia.com/terms/m/macd.asp"
  },
  {
    "disp_name": "On Balance Volume (OBV)",
    "name": "obv",
    "params": [],
    "link" :"https://www.investopedia.com/terms/o/onbalancevolume.asp"
  },
  {
    "disp_name": "Parabolic Stop and Reverse (PSAR)",
    "name": "psar",
    "params": [
      {
        "disp_name": "Steps",
        "name": "psar_steps",
        "value": "0.02"
      },
      {
        "disp_name": "Max",
        "name": "psar_max",
        "value": "0.2"
      }
    ],
    "link" :"https://www.investopedia.com/terms/p/parabolicindicator.asp"
  },
  {
    "disp_name": "Rate of Change (ROC)",
    "name": "roc",
    "params": [
      {
        "disp_name": "Time Period",
        "name": "roc_time_period",
        "value": "14"
      }
    ],
    "link" :"https://www.investopedia.com/terms/p/pricerateofchange.asp "
  },
  {
    "disp_name": "Relative Strength Index (RSI)",
    "name": "rsi",
    "params": [
      {
        "disp_name": "Time Period",
        "name": "rsi_time_period",
        "value": "14"
      },
      {
        "disp_name": "Upper Limit",
        "name": "rsi_upper_limit",
        "value": "70"
      },
      {
        "disp_name": "Lower Limit",
        "name": "rsi_lower_limit",
        "value": "30"
      }
    ],
    "link" :"https://www.investopedia.com/terms/r/rsi.asp"
  },
  {
    "disp_name": "Simple Moving Average (SMA)",
    "name": "sma",
    "params": [
      {
        "disp_name": "Short Period",
        "name": "sma_short_period",
        "value": "3"
      },
      {
        "disp_name": "Long Period",
        "name": "sma_long_period",
        "value": "14"
      }
    ],
    "link" :"https://www.investopedia.com/terms/s/sma.asp "
  },
  {
    "disp_name": "Stochastic Oscillator (KD)",
    "name": "stochastic",
    "params": [
      {
        "disp_name": "Time Period",
        "name": "kd_time_period",
        "value": "14"
      },
      {
        "disp_name": "Signal Period",
        "name": "kd_signal_period",
        "value": "3"
      }
    ],
    "link" :"https://www.investopedia.com/terms/s/stochasticoscillator.asp"
  },
  {
    "disp_name": "Triple Exponentially Smoothed Average (TRIX)",
    "name": "trix",
    "params": [
      {
        "disp_name": "Time Period",
        "name": "trix_time_period",
        "value": "14"
      }
    ],
    "link" :"https://www.investopedia.com/terms/t/trix.asp"
  },
  {
    "disp_name": "Volume Weighted Average Price (VWAP)",
    "name": "vwap",
    "params": [],
    "link" :"https://www.investopedia.com/terms/v/vwap.asp"
  },
  {
    "disp_name": "Exponential Moving Average (EMA)",
    "name": "ema",
    "params": [
      {
        "disp_name": "Short Period",
        "name": "ema_short_period",
        "value": "3"
      },
      {
        "disp_name": "Long Period",
        "name": "ema_long_period",
        "value": "14"
      }
    ],
    "link" :"https://www.investopedia.com/terms/e/ema.asp"
  },
  {
    "disp_name": "Weighted Moving Average (WMA)",
    "name": "wma",
    "params": [
      {
        "disp_name": "Time Period",
        "name": "wma_time_period",
        "value": "14"
      }
    ],
    "link" :"https://www.investopedia.com/terms/l/linearlyweightedmovingaverage.asp"
  },
  {
    "disp_name": "Wilder’s Smoothing (Smoothed Moving Average, WEMA)",
    "name": "wema",
    "params": [
      {
        "disp_name": "Time Period",
        "name": "wema_time_period",
        "value": "14"
      }
    ],
    "link" :""
  },
  {
    "disp_name": "WilliamsR (W%R)",
    "name": "williamsr",
    "params": [
      {
        "disp_name": "Time Period",
        "name": "williamsr_time_period",
        "value": "14"
      }
    ],
    "link" :"https://www.investopedia.com/terms/w/williamsr.asp"
  }
]
